ECO 602 - Analysis of Environmental Data
…
subset(penguins, species == "Chinstrap") #Subset of the Chinstrap species

## # A tibble: 68 x 8
##    species island bill_length_mm bill_depth_mm flipper_length_~ body_mass_g
##    <fct>   <fct>           <dbl>         <dbl>            <int>       <int>
##  1 Chinst~ Dream            46.5          17.9              192        3500
##  2 Chinst~ Dream            50            19.5              196        3900
##  3 Chinst~ Dream            51.3          19.2              193        3650
##  4 Chinst~ Dream            45.4          18.7              188        3525
##  5 Chinst~ Dream            52.7          19.8              197        3725
##  6 Chinst~ Dream            45.2          17.8              198        3950
##  7 Chinst~ Dream            46.1          18.2              178        3250
##  8 Chinst~ Dream            51.3          18.2              197        3750
##  9 Chinst~ Dream            46            18.9              195        4150
## 10 Chinst~ Dream            51.3          19.9              198        3700
## # ... with 58 more rows, and 2 more variables: sex <fct>, year <int>

chinstrap <- subset(penguins, species == "Chinstrap") #Subset of the Chinstrap species placed in vector

subset(chinstrap, sex == "female") # Subset of the Chinstrap species female sex

## # A tibble: 34 x 8
##    species island bill_length_mm bill_depth_mm flipper_length_~ body_mass_g
##    <fct>   <fct>           <dbl>         <dbl>            <int>       <int>
##  1 Chinst~ Dream            46.5          17.9              192        3500
##  2 Chinst~ Dream            45.4          18.7              188        3525
##  3 Chinst~ Dream            45.2          17.8              198        3950
##  4 Chinst~ Dream            46.1          18.2              178        3250
##  5 Chinst~ Dream            46            18.9              195        4150
##  6 Chinst~ Dream            46.6          17.8              193        3800
##  7 Chinst~ Dream            47            17.3              185        3700
##  8 Chinst~ Dream            45.9          17.1              190        3575
##  9 Chinst~ Dream            58            17.8              181        3700
## 10 Chinst~ Dream            46.4          18.6              190        3450
## # ... with 24 more rows, and 2 more variables: sex <fct>, year <int>
…
